Get Started • R Packages and Users Observatory
…
Query package reverse dependencies

Find the reverse dependencies of a package

repo_rev_dep <- agent$query_repos_graph(repo_id, degrees = 1, method = "reverse")
print(repo_rev_dep)
#> # A tibble: 2,592 × 3
#>    degree      from      to
#>     <dbl>     <dbl>   <dbl>
#>  1      0   6427813 6427813
#>  2      1 221466628 6427813
#>  3      1  78038172 6427813
#>  4      1 340095903 6427813
#>  5      1 201294705 6427813
#>  6      1  80061030 6427813
#>  7      1 447452022 6427813
#>  8      1  39196192 6427813
#>  9      1 334079562 6427813
#> 10      1 244196790 6427813
#> # … with 2,582 more rows

Add details to the Package dependencies

(
    repo_rev_dep
    |> dplyr::left_join(ecos$read_REPO(), by = c("from" = "id"))
)
#> # A tibble: 2,592 × 17
#>    degree      from      to package       full_name owner_type owner_id html_url
#>     <dbl>     <dbl>   <dbl> <chr>         <chr>     <chr>         <dbl> <chr>   
#>  1      0   6427813 6427813 dplyr         tidyvers… Organizat… 22032646 https:/…
#>  2      1 221466628 6427813 AATtools      spiritsp… User       35294148 https:/…
#>  3      1  78038172 6427813 abjutils      cran/abj… Organizat…  6899542 https:/…
#>  4      1 340095903 6427813 academictwit… cjbarrie… User       29574597 https:/…
#>  5      1 201294705 6427813 accept        cran/acc… Organizat…  6899542 https:/…
#>  6      1  80061030 6427813 accucor       xiaoyang… User       14297111 https:/…
#>  7      1 447452022 6427813 ACDC          cran/acdc Organizat…  6899542 https:/…
#>  8      1  39196192 6427813 ACDm          cran/acdm Organizat…  6899542 https:/…
#>  9      1 334079562 6427813 acroname      cran/acr… Organizat…  6899542 https:/…
#> 10      1 244196790 6427813 ActCR         junruidi… User       14096626 https:/…
#> # … with 2,582 more rows, and 9 more variables: stargazers_count <dbl>,
#> #   watchers_count <dbl>, forks_count <dbl>, language <chr>, homepage <chr>,
#> #   created_at <date>, updated_at <date>, queried_at <date>,
#> #   processed_at <date>
…
Query user following

Find who is user_id following

user_following <- agent$query_users_graph(user_id, degrees = 1, method = "following")
print(user_following)
#> # A tibble: 56 × 3
#>    degree    from      to
#>     <dbl>   <dbl>   <dbl>
#>  1      0 7226303 7226303
#>  2      1 7226303    4196
#>  3      1 7226303   86978
#>  4      1 7226303   93231
#>  5      1 7226303  104391
#>  6      1 7226303  129551
#>  7      1 7226303  205275
#>  8      1 7226303  216319
#>  9      1 7226303  227097
#> 10      1 7226303  470418
#> # … with 46 more rows

Add details to those who user_id is following

(
    user_following
    |> dplyr::left_join(ecos$read_USER(), by = c("to" = "id"))
)
#> # A tibble: 56 × 19
#>    degree    from      to login avatar_url html_url name  public_repos followers
#>     <dbl>   <dbl>   <dbl> <chr> <chr>      <chr>    <chr>        <dbl>     <dbl>
#>  1      0 7226303 7226303 hare… https://a… https:/… NA              13         6
#>  2      1 7226303    4196 hadl… https://a… https:/… Hadl…          176     22465
#>  3      1 7226303   86978 wch   https://a… https:/… Wins…          125      1326
#>  4      1 7226303   93231 schl… https://a… https:/… Barr…          186       221
#>  5      1 7226303  104391 jjal… https://a… https:/… J j …          138      1498
#>  6      1 7226303  129551 jche… https://a… https:/… Joe …          159      1780
#>  7      1 7226303  205275 jimh… https://a… https:/… Jim …          454      1481
#>  8      1 7226303  216319 jero… https://a… https:/… Jero…          303      1550
#>  9      1 7226303  227097 kohs… https://a… https:/… Kohs…           43        61
#> 10      1 7226303  470418 jmcp… https://a… https:/… Jona…           39       389
#> # … with 46 more rows, and 10 more variables: following <dbl>,
#> #   r_followers <dbl>, r_following <dbl>, r_contributor_count <dbl>,
#> #   r_stargazer_count <dbl>, r_watcher_count <dbl>, created_at <date>,
#> #   updated_at <date>, queried_at <date>, processed_at <date>
…
